\select@language {russian}
\contentsline {section}{\numberline {1}\IeC {\CYRL }\IeC {\cyra }\IeC {\cyrb }\IeC {\cyro }\IeC {\cyrr }\IeC {\cyra }\IeC {\cyrt }\IeC {\cyro }\IeC {\cyrr }\IeC {\cyrn }\IeC {\cyrery }\IeC {\cyre } \IeC {\cyrr }\IeC {\cyra }\IeC {\cyrb }\IeC {\cyro }\IeC {\cyrt }\IeC {\cyrery }}{2}{section.1}
\contentsline {subsection}{\numberline {1.1}\IeC {\CYRL }\IeC {\cyra }\IeC {\cyrb }\IeC {\cyro }\IeC {\cyrr }\IeC {\cyra }\IeC {\cyrt }\IeC {\cyro }\IeC {\cyrr }\IeC {\cyrn }\IeC {\cyra }\IeC {\cyrya } \IeC {\cyrr }\IeC {\cyra }\IeC {\cyrb }\IeC {\cyro }\IeC {\cyrt }\IeC {\cyra } 1}{2}{subsection.1.1}
\contentsline {subsubsection}{\numberline {1.1.1}\IeC {\CYRT }\IeC {\cyrr }\IeC {\cyre }\IeC {\cyrb }\IeC {\cyro }\IeC {\cyrv }\IeC {\cyra }\IeC {\cyrn }\IeC {\cyri }\IeC {\cyrya } \IeC {\cyrk } \IeC {\cyrz }\IeC {\cyrn }\IeC {\cyra }\IeC {\cyrn }\IeC {\cyri }\IeC {\cyrya }\IeC {\cyrm }}{2}{subsubsection.1.1.1}
\contentsline {subsubsection}{\numberline {1.1.2}\IeC {\CYRP }\IeC {\cyro }\IeC {\cyrd }\IeC {\cyrg }\IeC {\cyro }\IeC {\cyrt }\IeC {\cyro }\IeC {\cyrv }\IeC {\cyrk }\IeC {\cyra } \IeC {\cyrk }\IeC {\cyro }\IeC {\cyrm }\IeC {\cyrp }\IeC {\cyrl }\IeC {\cyre }\IeC {\cyrk }\IeC {\cyrt }\IeC {\cyra } \IeC {\cyrd }\IeC {\cyro }\IeC {\cyrk }\IeC {\cyru }\IeC {\cyrm }\IeC {\cyre }\IeC {\cyrn }\IeC {\cyrt }\IeC {\cyra }\IeC {\cyrc }\IeC {\cyri }\IeC {\cyri } \IeC {\cyrd }\IeC {\cyrl }\IeC {\cyrya } \IeC {\cyrs }\IeC {\cyro }\IeC {\cyrg }\IeC {\cyrl }\IeC {\cyra }\IeC {\cyrs }\IeC {\cyro }\IeC {\cyrv }\IeC {\cyra }\IeC {\cyrn }\IeC {\cyri }\IeC {\cyrya } \IeC {\cyrd }\IeC {\cyro }\IeC {\cyrg }\IeC {\cyro }\IeC {\cyrv }\IeC {\cyro }\IeC {\cyrr }\IeC {\cyra } \IeC {\cyro } \IeC {\CYRN }\IeC {\CYRI }\IeC {\CYRR }, \IeC {\CYRO }\IeC {\CYRK }\IeC {\CYRR } \IeC {\cyrp }\IeC {\cyrr }\IeC {\cyri } \IeC {\cyrr }\IeC {\cyra }\IeC {\cyrz }\IeC {\cyrr }\IeC {\cyra }\IeC {\cyrb }\IeC {\cyro }\IeC {\cyrt }\IeC {\cyrk }\IeC {\cyre } \IeC {\cyri }\IeC {\cyrn }\IeC {\cyrzh }\IeC {\cyre }\IeC {\cyrn }\IeC {\cyre }\IeC {\cyrr }\IeC {\cyrn }\IeC {\cyro }\IeC {\cyrg }\IeC {\cyro } \IeC {\CYRP }\IeC {\CYRO }}{2}{subsubsection.1.1.2}
\contentsline {subsubsection}{\numberline {1.1.3}\IeC {\CYRV }\IeC {\cyra }\IeC {\cyrr }\IeC {\cyri }\IeC {\cyra }\IeC {\cyrn }\IeC {\cyrt }\IeC {\cyrery } \IeC {\cyrz }\IeC {\cyra }\IeC {\cyrd }\IeC {\cyra }\IeC {\cyrn }\IeC {\cyri }\IeC {\cyrishrt }}{4}{subsubsection.1.1.3}
\contentsline {subsection}{\numberline {1.2}\IeC {\CYRL }\IeC {\cyra }\IeC {\cyrb }\IeC {\cyro }\IeC {\cyrr }\IeC {\cyra }\IeC {\cyrt }\IeC {\cyro }\IeC {\cyrr }\IeC {\cyrn }\IeC {\cyra }\IeC {\cyrya } \IeC {\cyrr }\IeC {\cyra }\IeC {\cyrb }\IeC {\cyro }\IeC {\cyrt }\IeC {\cyra } 2}{7}{subsection.1.2}
\contentsline {subsubsection}{\numberline {1.2.1}\IeC {\CYRT }\IeC {\cyrr }\IeC {\cyre }\IeC {\cyrb }\IeC {\cyro }\IeC {\cyrv }\IeC {\cyra }\IeC {\cyrn }\IeC {\cyri }\IeC {\cyrya } \IeC {\cyrd }\IeC {\cyrl }\IeC {\cyrya } \IeC {\cyrv }\IeC {\cyrery }\IeC {\cyrp }\IeC {\cyro }\IeC {\cyrl }\IeC {\cyrn }\IeC {\cyre }\IeC {\cyrn }\IeC {\cyri }\IeC {\cyrya } \IeC {\cyrl }\IeC {\cyra }\IeC {\cyrb }\IeC {\cyro }\IeC {\cyrr }\IeC {\cyra }\IeC {\cyrt }\IeC {\cyro }\IeC {\cyrr }\IeC {\cyrn }\IeC {\cyro }\IeC {\cyrishrt } \IeC {\cyrr }\IeC {\cyra }\IeC {\cyrb }\IeC {\cyro }\IeC {\cyrt }\IeC {\cyrery }}{7}{subsubsection.1.2.1}
\contentsline {subsubsection}{\numberline {1.2.2}\IeC {\CYRO }\IeC {\cyrc }\IeC {\cyre }\IeC {\cyrn }\IeC {\cyrk }\IeC {\cyra } \IeC {\cyrz }\IeC {\cyra }\IeC {\cyrt }\IeC {\cyrr }\IeC {\cyra }\IeC {\cyrt } \IeC {\cyrn }\IeC {\cyra } \IeC {\cyrv }\IeC {\cyrery }\IeC {\cyrp }\IeC {\cyro }\IeC {\cyrl }\IeC {\cyrn }\IeC {\cyre }\IeC {\cyrn }\IeC {\cyri }\IeC {\cyre } \IeC {\CYRN }\IeC {\CYRI }\IeC {\CYRR }, \IeC {\CYRO }\IeC {\CYRK }\IeC {\CYRR } \IeC {\cyrp }\IeC {\cyro } \IeC {\cyrr }\IeC {\cyra }\IeC {\cyrz }\IeC {\cyrr }\IeC {\cyra }\IeC {\cyrb }\IeC {\cyro }\IeC {\cyrt }\IeC {\cyrk }\IeC {\cyre } \IeC {\CYRP }\IeC {\CYRO } \IeC {\cyrk }\IeC {\cyro }\IeC {\cyrl }\IeC {\cyrl }\IeC {\cyre }\IeC {\cyrk }\IeC {\cyrt }\IeC {\cyri }\IeC {\cyrv }\IeC {\cyro }\IeC {\cyrm } \IeC {\cyri }\IeC {\cyrs }\IeC {\cyrp }\IeC {\cyro }\IeC {\cyrl }\IeC {\cyrn }\IeC {\cyri }\IeC {\cyrt }\IeC {\cyre }\IeC {\cyrl }\IeC {\cyre }\IeC {\cyrishrt }}{7}{subsubsection.1.2.2}
\contentsline {subsubsection}{\numberline {1.2.3}\IeC {\CYRV }\IeC {\cyra }\IeC {\cyrr }\IeC {\cyri }\IeC {\cyra }\IeC {\cyrn }\IeC {\cyrt }\IeC {\cyrery } \IeC {\cyrz }\IeC {\cyra }\IeC {\cyrd }\IeC {\cyra }\IeC {\cyrn }\IeC {\cyri }\IeC {\cyrishrt }}{9}{subsubsection.1.2.3}
\contentsline {subsection}{\numberline {1.3}\IeC {\CYRL }\IeC {\cyra }\IeC {\cyrb }\IeC {\cyro }\IeC {\cyrr }\IeC {\cyra }\IeC {\cyrt }\IeC {\cyro }\IeC {\cyrr }\IeC {\cyrn }\IeC {\cyra }\IeC {\cyrya } \IeC {\cyrr }\IeC {\cyra }\IeC {\cyrb }\IeC {\cyro }\IeC {\cyrt }\IeC {\cyra } 3}{10}{subsection.1.3}
\contentsline {subsubsection}{\numberline {1.3.1}\IeC {\CYRT }\IeC {\cyrr }\IeC {\cyre }\IeC {\cyrb }\IeC {\cyro }\IeC {\cyrv }\IeC {\cyra }\IeC {\cyrn }\IeC {\cyri }\IeC {\cyrya } \IeC {\cyrk } \IeC {\cyrz }\IeC {\cyrn }\IeC {\cyra }\IeC {\cyrn }\IeC {\cyri }\IeC {\cyrya }\IeC {\cyrm } \IeC {\cyrd }\IeC {\cyrl }\IeC {\cyrya } \IeC {\cyrv }\IeC {\cyrery }\IeC {\cyrp }\IeC {\cyro }\IeC {\cyrl }\IeC {\cyrn }\IeC {\cyre }\IeC {\cyrn }\IeC {\cyri }\IeC {\cyrya }}{10}{subsubsection.1.3.1}
\contentsline {subsubsection}{\numberline {1.3.2}\IeC {\CYRR }\IeC {\cyra }\IeC {\cyrz }\IeC {\cyrr }\IeC {\cyra }\IeC {\cyrb }\IeC {\cyro }\IeC {\cyrt }\IeC {\cyra }\IeC {\cyrt }\IeC {\cyrsftsn } \IeC {\cyrsh }\IeC {\cyra }\IeC {\cyrb }\IeC {\cyrl }\IeC {\cyro }\IeC {\cyrn } \IeC {\cyrf }\IeC {\cyra }\IeC {\cyrishrt }\IeC {\cyrl }\IeC {\cyra } \IeC {\cyri }\IeC {\cyrs }\IeC {\cyrh }\IeC {\cyro }\IeC {\cyrd }\IeC {\cyrn }\IeC {\cyrery }\IeC {\cyrh } \IeC {\cyrd }\IeC {\cyra }\IeC {\cyrn }\IeC {\cyrn }\IeC {\cyrery }\IeC {\cyrh } \IeC {\cyri } \IeC {\cyrg }\IeC {\cyrr }\IeC {\cyra }\IeC {\cyrf }\IeC {\cyro }\IeC {\cyrv }\IeC {\cyru }\IeC {\cyryu } \IeC {\cyrm }\IeC {\cyro }\IeC {\cyrd }\IeC {\cyre }\IeC {\cyrl }\IeC {\cyrsftsn } \IeC {\cyrp }\IeC {\cyrr }\IeC {\cyro }\IeC {\cyrg }\IeC {\cyrr }\IeC {\cyra }\IeC {\cyrm }\IeC {\cyrm }\IeC {\cyrn }\IeC {\cyro }\IeC {\cyrishrt } \IeC {\cyrr }\IeC {\cyre }\IeC {\cyra }\IeC {\cyrl }\IeC {\cyri }\IeC {\cyrz }\IeC {\cyra }\IeC {\cyrc }\IeC {\cyri }\IeC {\cyri } \IeC {\cyrz }\IeC {\cyra }\IeC {\cyrd }\IeC {\cyra }\IeC {\cyrn }\IeC {\cyrn }\IeC {\cyro }\IeC {\cyrg }\IeC {\cyro } \IeC {\cyrv }\IeC {\cyrery }\IeC {\cyrch }\IeC {\cyri }\IeC {\cyrs }\IeC {\cyrl }\IeC {\cyri }\IeC {\cyrt }\IeC {\cyre }\IeC {\cyrl }\IeC {\cyrsftsn }\IeC {\cyrn }\IeC {\cyro }\IeC {\cyrg }\IeC {\cyro } \IeC {\cyrm }\IeC {\cyre }\IeC {\cyrt }\IeC {\cyro }\IeC {\cyrd }\IeC {\cyra }}{10}{subsubsection.1.3.2}
\contentsline {subsubsection}{\numberline {1.3.3}\IeC {\CYRV }\IeC {\cyra }\IeC {\cyrr }\IeC {\cyri }\IeC {\cyra }\IeC {\cyrn }\IeC {\cyrt }\IeC {\cyrery } \IeC {\cyrz }\IeC {\cyra }\IeC {\cyrd }\IeC {\cyra }\IeC {\cyrn }\IeC {\cyri }\IeC {\cyrishrt }}{11}{subsubsection.1.3.3}
\contentsline {subsection}{\numberline {1.4}\IeC {\CYRL }\IeC {\cyra }\IeC {\cyrb }\IeC {\cyro }\IeC {\cyrr }\IeC {\cyra }\IeC {\cyrt }\IeC {\cyro }\IeC {\cyrr }\IeC {\cyrn }\IeC {\cyra }\IeC {\cyrya } \IeC {\cyrr }\IeC {\cyra }\IeC {\cyrb }\IeC {\cyro }\IeC {\cyrt }\IeC {\cyra } 4}{13}{subsection.1.4}
\contentsline {subsubsection}{\numberline {1.4.1}\IeC {\CYRT }\IeC {\cyrr }\IeC {\cyre }\IeC {\cyrb }\IeC {\cyro }\IeC {\cyrv }\IeC {\cyra }\IeC {\cyrn }\IeC {\cyri }\IeC {\cyrya } \IeC {\cyrk } \IeC {\cyrz }\IeC {\cyrn }\IeC {\cyra }\IeC {\cyrn }\IeC {\cyri }\IeC {\cyrya }\IeC {\cyrm } \IeC {\cyrd }\IeC {\cyrl }\IeC {\cyrya } \IeC {\cyrv }\IeC {\cyrery }\IeC {\cyrp }\IeC {\cyro }\IeC {\cyrl }\IeC {\cyrn }\IeC {\cyre }\IeC {\cyrn }\IeC {\cyri }\IeC {\cyrya }}{13}{subsubsection.1.4.1}
\contentsline {subsubsection}{\numberline {1.4.2}\IeC {\CYRR }\IeC {\cyra }\IeC {\cyrz }\IeC {\cyrr }\IeC {\cyra }\IeC {\cyrb }\IeC {\cyro }\IeC {\cyrt }\IeC {\cyra }\IeC {\cyrt }\IeC {\cyrsftsn } \IeC {\cyrg }\IeC {\cyrr }\IeC {\cyra }\IeC {\cyrf }\IeC {\cyro }\IeC {\cyro }\IeC {\cyrr }\IeC {\cyri }\IeC {\cyre }\IeC {\cyrn }\IeC {\cyrt }\IeC {\cyri }\IeC {\cyrr }\IeC {\cyro }\IeC {\cyrv }\IeC {\cyra }\IeC {\cyrn }\IeC {\cyrn }\IeC {\cyru }\IeC {\cyryu } \IeC {\cyrp }\IeC {\cyrr }\IeC {\cyro }\IeC {\cyrg }\IeC {\cyrr }\IeC {\cyra }\IeC {\cyrm }\IeC {\cyrm }\IeC {\cyrn }\IeC {\cyru }\IeC {\cyryu } \IeC {\cyrr }\IeC {\cyre }\IeC {\cyra }\IeC {\cyrl }\IeC {\cyri }\IeC {\cyrz }\IeC {\cyra }\IeC {\cyrc }\IeC {\cyri }\IeC {\cyryu } \IeC {\cyrs }\IeC {\cyrl }\IeC {\cyro }\IeC {\cyrzh }\IeC {\cyrn }\IeC {\cyro }\IeC {\cyrg }\IeC {\cyro } \IeC {\cyrv }\IeC {\cyrery }\IeC {\cyrch }\IeC {\cyri }\IeC {\cyrs }\IeC {\cyrl }\IeC {\cyri }\IeC {\cyrt }\IeC {\cyre }\IeC {\cyrl }\IeC {\cyrsftsn }\IeC {\cyrn }\IeC {\cyro }\IeC {\cyrg }\IeC {\cyro } \IeC {\cyrm }\IeC {\cyre }\IeC {\cyrt }\IeC {\cyro }\IeC {\cyrd }\IeC {\cyra }}{13}{subsubsection.1.4.2}
\contentsline {subsubsection}{\numberline {1.4.3}\IeC {\CYRV }\IeC {\cyra }\IeC {\cyrr }\IeC {\cyri }\IeC {\cyra }\IeC {\cyrn }\IeC {\cyrt }\IeC {\cyrery } \IeC {\cyrz }\IeC {\cyra }\IeC {\cyrd }\IeC {\cyra }\IeC {\cyrn }\IeC {\cyri }\IeC {\cyrishrt }}{14}{subsubsection.1.4.3}
\contentsline {section}{\numberline {2}\IeC {\CYRV }\IeC {\cyro }\IeC {\cyrp }\IeC {\cyrr }\IeC {\cyro }\IeC {\cyrs }\IeC {\cyrery } \IeC {\cyri } \IeC {\cyro }\IeC {\cyrt }\IeC {\cyrv }\IeC {\cyre }\IeC {\cyrt }\IeC {\cyrery }}{14}{section.2}
\contentsline {section}{\IeC {\CYRA }\IeC {\cyrb }\IeC {\cyrb }\IeC {\cyrr }\IeC {\cyre }\IeC {\cyrv }\IeC {\cyri }\IeC {\cyra }\IeC {\cyrt }\IeC {\cyru }\IeC {\cyrr }\IeC {\cyrery }}{22}{section*.3}
