\relax 
\providecommand\hyper@newdestlabel[2]{}
\@setckpt{TLK/TLK_title}{
\setcounter{page}{1}
\setcounter{equation}{0}
\setcounter{enumi}{0}
\setcounter{enumii}{0}
\setcounter{enumiii}{0}
\setcounter{enumiv}{0}
\setcounter{footnote}{0}
\setcounter{mpfootnote}{0}
\setcounter{part}{0}
\setcounter{section}{0}
\setcounter{subsection}{0}
\setcounter{subsubsection}{0}
\setcounter{paragraph}{0}
\setcounter{subparagraph}{0}
\setcounter{figure}{0}
\setcounter{table}{0}
\setcounter{float@type}{8}
\setcounter{lstnumber}{1}
\setcounter{LT@tables}{0}
\setcounter{LT@chunks}{0}
\setcounter{r@tfl@t}{0}
\setcounter{Item}{0}
\setcounter{Hfootnote}{0}
\setcounter{bookmark@seq@number}{0}
\setcounter{parentequation}{0}
\setcounter{su@anzahl}{0}
\setcounter{AM@survey}{0}
\setcounter{task}{0}
\setcounter{magicrownumbers}{0}
\setcounter{remark}{0}
\setcounter{definition}{0}
\setcounter{syntax}{0}
\setcounter{theorem}{0}
\setcounter{subtheorem}{0}
\setcounter{lemm}{0}
\setcounter{sublemm}{0}
\setcounter{corollary}{0}
\setcounter{statement}{0}
\setcounter{demand}{0}
\setcounter{faqa}{0}
\setcounter{variant}{0}
\setcounter{lstlisting}{0}
\setcounter{section@level}{0}
}
