\relax 
\providecommand\hyper@newdestlabel[2]{}
\catcode `"\active 
\providecommand\HyperFirstAtBeginDocument{\AtBeginDocument}
\HyperFirstAtBeginDocument{\ifx\hyper@anchor\@undefined
\global\let\oldcontentsline\contentsline
\gdef\contentsline#1#2#3#4{\oldcontentsline{#1}{#2}{#3}}
\global\let\oldnewlabel\newlabel
\gdef\newlabel#1#2{\newlabelxx{#1}#2}
\gdef\newlabelxx#1#2#3#4#5#6{\oldnewlabel{#1}{{#2}{#3}}}
\AtEndDocument{\ifx\hyper@anchor\@undefined
\let\contentsline\oldcontentsline
\let\newlabel\oldnewlabel
\fi}
\fi}
\global\let\hyper@last\relax 
\gdef\HyperFirstAtBeginDocument#1{#1}
\providecommand\HyField@AuxAddToFields[1]{}
\providecommand\HyField@AuxAddToCoFields[2]{}
\catcode 95\active
\@input{TLK/TLK_title.aux}
\providecommand\@newglossary[4]{}
\@newglossary{main}{glg}{gls}{glo}
\@newglossary{abbreviations}{glg-abr}{gls-abr}{glo-abr}
\providecommand\@glsorder[1]{}
\providecommand\@istfilename[1]{}
\@istfilename{educmm_lab_COMPMATH_ENG.ist}
\@glsorder{word}
\select@language{russian}
\@writefile{toc}{\select@language{russian}}
\@writefile{lof}{\select@language{russian}}
\@writefile{lot}{\select@language{russian}}
\citation{Pershin2018CompMath}
\citation{SokolovPershin2018ManLab}
\@writefile{toc}{\contentsline {section}{\numberline {1}Laboratory Work}{2}{section.1}}
\@writefile{toc}{\contentsline {subsection}{\numberline {1.1}Laboratory work 1}{2}{subsection.1.1}}
\@writefile{toc}{\contentsline {subsubsection}{\numberline {1.1.1}Knowledge requirements to perform}{2}{subsubsection.1.1.1}}
\@writefile{toc}{\contentsline {subsubsection}{\numberline {1.1.2}Interpolation of functions by Lagrange polynomials}{2}{subsubsection.1.1.2}}
\@writefile{toc}{\contentsline {subsubsection}{\numberline {1.1.3}Local interpolation by cubic splines}{3}{subsubsection.1.1.3}}
\@writefile{toc}{\contentsline {subsection}{\numberline {1.2}Laboratory work 2}{5}{subsection.1.2}}
\@writefile{toc}{\contentsline {subsubsection}{\numberline {1.2.1}Knowledge requirements to perform}{5}{subsubsection.1.2.1}}
\@writefile{toc}{\contentsline {subsubsection}{\numberline {1.2.2}Numerical differentiation}{5}{subsubsection.1.2.2}}
\@writefile{toc}{\contentsline {subsubsection}{\numberline {1.2.3}Numerical integration}{6}{subsubsection.1.2.3}}
\@writefile{toc}{\contentsline {subsubsection}{\numberline {1.2.4}Fast Fourier Transform}{8}{subsubsection.1.2.4}}
\@writefile{toc}{\contentsline {subsection}{\numberline {1.3}Laboratory work 3}{10}{subsection.1.3}}
\@writefile{toc}{\contentsline {subsubsection}{\numberline {1.3.1}Knowledge requirements to perform}{10}{subsubsection.1.3.1}}
\@writefile{toc}{\contentsline {subsubsection}{\numberline {1.3.2}LU-decomposition}{10}{subsubsection.1.3.2}}
\newlabel{eq.slau}{{6}{10}{LU-decomposition}{equation.1.6}{}}
\@writefile{toc}{\contentsline {subsection}{\numberline {1.4}Laboratory work 4}{12}{subsection.1.4}}
\@writefile{toc}{\contentsline {subsubsection}{\numberline {1.4.1}Knowledge requirements to perform}{12}{subsubsection.1.4.1}}
\@writefile{toc}{\contentsline {subsubsection}{\numberline {1.4.2}Model of Lotka\IeC {\textendash }Volterra}{12}{subsubsection.1.4.2}}
\@writefile{toc}{\contentsline {section}{\numberline {2}Questions and Answers}{14}{section.2}}
\bibstyle{unsrt}
\bibdata{bibliography,bibliographadd}
\bibcite{Pershin2018CompMath}{{1}{}{{}}{{}}}
\bibcite{SokolovPershin2018ManLab}{{2}{}{{}}{{}}}
\providecommand\NAT@force@numbers{}\NAT@force@numbers
\providecommand*{\@gls@entry@count}[2]{}
\newlabel{bibs}{{2}{15}{Questions and Answers}{faqa.5}{}}
