\select@language {russian}
\contentsline {section}{\numberline {1}\IeC {\CYRL }\IeC {\cyra }\IeC {\cyrb }\IeC {\cyro }\IeC {\cyrr }\IeC {\cyra }\IeC {\cyrt }\IeC {\cyro }\IeC {\cyrr }\IeC {\cyrn }\IeC {\cyrery }\IeC {\cyre } \IeC {\cyrr }\IeC {\cyra }\IeC {\cyrb }\IeC {\cyro }\IeC {\cyrt }\IeC {\cyrery }}{2}{section.1}
\contentsline {subsection}{\numberline {1.1}\IeC {\CYRL }\IeC {\cyra }\IeC {\cyrb }\IeC {\cyro }\IeC {\cyrr }\IeC {\cyra }\IeC {\cyrt }\IeC {\cyro }\IeC {\cyrr }\IeC {\cyrn }\IeC {\cyra }\IeC {\cyrya } \IeC {\cyrr }\IeC {\cyra }\IeC {\cyrb }\IeC {\cyro }\IeC {\cyrt }\IeC {\cyra } 1}{2}{subsection.1.1}
\contentsline {subsubsection}{\numberline {1.1.1}\IeC {\CYRT }\IeC {\cyrr }\IeC {\cyre }\IeC {\cyrb }\IeC {\cyro }\IeC {\cyrv }\IeC {\cyra }\IeC {\cyrn }\IeC {\cyri }\IeC {\cyrya } \IeC {\cyrk } \IeC {\cyrz }\IeC {\cyrn }\IeC {\cyra }\IeC {\cyrn }\IeC {\cyri }\IeC {\cyrya }\IeC {\cyrm } \IeC {\cyrd }\IeC {\cyrl }\IeC {\cyrya } \IeC {\cyrv }\IeC {\cyrery }\IeC {\cyrp }\IeC {\cyro }\IeC {\cyrl }\IeC {\cyrn }\IeC {\cyre }\IeC {\cyrn }\IeC {\cyri }\IeC {\cyrya }}{2}{subsubsection.1.1.1}
\contentsline {subsubsection}{\numberline {1.1.2}\IeC {\CYRI }\IeC {\cyrn }\IeC {\cyrt }\IeC {\cyre }\IeC {\cyrr }\IeC {\cyrp }\IeC {\cyro }\IeC {\cyrl }\IeC {\cyri }\IeC {\cyrr }\IeC {\cyro }\IeC {\cyrv }\IeC {\cyra }\IeC {\cyrn }\IeC {\cyri }\IeC {\cyre } \IeC {\cyrf }\IeC {\cyru }\IeC {\cyrn }\IeC {\cyrk }\IeC {\cyrc }\IeC {\cyri }\IeC {\cyrishrt } \IeC {\cyrp }\IeC {\cyro }\IeC {\cyrl }\IeC {\cyri }\IeC {\cyrn }\IeC {\cyro }\IeC {\cyrm }\IeC {\cyra }\IeC {\cyrm }\IeC {\cyri } \IeC {\CYRL }\IeC {\cyra }\IeC {\cyrg }\IeC {\cyrr }\IeC {\cyra }\IeC {\cyrn }\IeC {\cyrzh }\IeC {\cyra }}{2}{subsubsection.1.1.2}
\contentsline {subsubsection}{\numberline {1.1.3}\IeC {\CYRL }\IeC {\cyro }\IeC {\cyrk }\IeC {\cyra }\IeC {\cyrl }\IeC {\cyrsftsn }\IeC {\cyrn }\IeC {\cyra }\IeC {\cyrya } \IeC {\cyri }\IeC {\cyrn }\IeC {\cyrt }\IeC {\cyre }\IeC {\cyrr }\IeC {\cyrp }\IeC {\cyro }\IeC {\cyrl }\IeC {\cyrya }\IeC {\cyrc }\IeC {\cyri }\IeC {\cyrya } \IeC {\cyrk }\IeC {\cyru }\IeC {\cyrb }\IeC {\cyri }\IeC {\cyrch }\IeC {\cyre }\IeC {\cyrs }\IeC {\cyrk }\IeC {\cyri }\IeC {\cyrm }\IeC {\cyri } \IeC {\cyrs }\IeC {\cyrp }\IeC {\cyrl }\IeC {\cyra }\IeC {\cyrishrt }\IeC {\cyrn }\IeC {\cyra }\IeC {\cyrm }}{3}{subsubsection.1.1.3}
\contentsline {subsection}{\numberline {1.2}\IeC {\CYRL }\IeC {\cyra }\IeC {\cyrb }\IeC {\cyro }\IeC {\cyrr }\IeC {\cyra }\IeC {\cyrt }\IeC {\cyro }\IeC {\cyrr }\IeC {\cyrn }\IeC {\cyra }\IeC {\cyrya } \IeC {\cyrr }\IeC {\cyra }\IeC {\cyrb }\IeC {\cyro }\IeC {\cyrt }\IeC {\cyra } 2}{5}{subsection.1.2}
\contentsline {subsubsection}{\numberline {1.2.1}\IeC {\CYRT }\IeC {\cyrr }\IeC {\cyre }\IeC {\cyrb }\IeC {\cyro }\IeC {\cyrv }\IeC {\cyra }\IeC {\cyrn }\IeC {\cyri }\IeC {\cyrya } \IeC {\cyrk } \IeC {\cyrz }\IeC {\cyrn }\IeC {\cyra }\IeC {\cyrn }\IeC {\cyri }\IeC {\cyrya }\IeC {\cyrm } \IeC {\cyrd }\IeC {\cyrl }\IeC {\cyrya } \IeC {\cyrv }\IeC {\cyrery }\IeC {\cyrp }\IeC {\cyro }\IeC {\cyrl }\IeC {\cyrn }\IeC {\cyre }\IeC {\cyrn }\IeC {\cyri }\IeC {\cyrya }}{5}{subsubsection.1.2.1}
\contentsline {subsubsection}{\numberline {1.2.2}\IeC {\CYRCH }\IeC {\cyri }\IeC {\cyrs }\IeC {\cyrl }\IeC {\cyre }\IeC {\cyrn }\IeC {\cyrn }\IeC {\cyro }\IeC {\cyre } \IeC {\cyrd }\IeC {\cyri }\IeC {\cyrf }\IeC {\cyrf }\IeC {\cyre }\IeC {\cyrr }\IeC {\cyre }\IeC {\cyrn }\IeC {\cyrc }\IeC {\cyri }\IeC {\cyrr }\IeC {\cyro }\IeC {\cyrv }\IeC {\cyra }\IeC {\cyrn }\IeC {\cyri }\IeC {\cyre }}{5}{subsubsection.1.2.2}
\contentsline {subsubsection}{\numberline {1.2.3}\IeC {\CYRCH }\IeC {\cyri }\IeC {\cyrs }\IeC {\cyrl }\IeC {\cyre }\IeC {\cyrn }\IeC {\cyrn }\IeC {\cyro }\IeC {\cyre } \IeC {\cyri }\IeC {\cyrn }\IeC {\cyrt }\IeC {\cyre }\IeC {\cyrg }\IeC {\cyrr }\IeC {\cyri }\IeC {\cyrr }\IeC {\cyro }\IeC {\cyrv }\IeC {\cyra }\IeC {\cyrn }\IeC {\cyri }\IeC {\cyre }}{7}{subsubsection.1.2.3}
\contentsline {subsubsection}{\numberline {1.2.4}\IeC {\CYRB }\IeC {\cyrery }\IeC {\cyrs }\IeC {\cyrt }\IeC {\cyrr }\IeC {\cyro }\IeC {\cyre } \IeC {\cyrp }\IeC {\cyrr }\IeC {\cyre }\IeC {\cyro }\IeC {\cyrb }\IeC {\cyrr }\IeC {\cyra }\IeC {\cyrz }\IeC {\cyro }\IeC {\cyrv }\IeC {\cyra }\IeC {\cyrn }\IeC {\cyri }\IeC {\cyre } \IeC {\CYRF }\IeC {\cyru }\IeC {\cyrr }\IeC {\cyrsftsn }\IeC {\cyre }}{8}{subsubsection.1.2.4}
\contentsline {subsection}{\numberline {1.3}\IeC {\CYRL }\IeC {\cyra }\IeC {\cyrb }\IeC {\cyro }\IeC {\cyrr }\IeC {\cyra }\IeC {\cyrt }\IeC {\cyro }\IeC {\cyrr }\IeC {\cyrn }\IeC {\cyra }\IeC {\cyrya } \IeC {\cyrr }\IeC {\cyra }\IeC {\cyrb }\IeC {\cyro }\IeC {\cyrt }\IeC {\cyra } 3}{10}{subsection.1.3}
\contentsline {subsubsection}{\numberline {1.3.1}\IeC {\CYRT }\IeC {\cyrr }\IeC {\cyre }\IeC {\cyrb }\IeC {\cyro }\IeC {\cyrv }\IeC {\cyra }\IeC {\cyrn }\IeC {\cyri }\IeC {\cyrya } \IeC {\cyrk } \IeC {\cyrz }\IeC {\cyrn }\IeC {\cyra }\IeC {\cyrn }\IeC {\cyri }\IeC {\cyrya }\IeC {\cyrm } \IeC {\cyrd }\IeC {\cyrl }\IeC {\cyrya } \IeC {\cyrv }\IeC {\cyrery }\IeC {\cyrp }\IeC {\cyro }\IeC {\cyrl }\IeC {\cyrn }\IeC {\cyre }\IeC {\cyrn }\IeC {\cyri }\IeC {\cyrya }}{10}{subsubsection.1.3.1}
\contentsline {subsubsection}{\numberline {1.3.2}LU-\IeC {\cyrr }\IeC {\cyra }\IeC {\cyrz }\IeC {\cyrl }\IeC {\cyro }\IeC {\cyrzh }\IeC {\cyre }\IeC {\cyrn }\IeC {\cyri }\IeC {\cyre }}{10}{subsubsection.1.3.2}
\contentsline {subsection}{\numberline {1.4}\IeC {\CYRL }\IeC {\cyra }\IeC {\cyrb }\IeC {\cyro }\IeC {\cyrr }\IeC {\cyra }\IeC {\cyrt }\IeC {\cyro }\IeC {\cyrr }\IeC {\cyrn }\IeC {\cyra }\IeC {\cyrya } \IeC {\cyrr }\IeC {\cyra }\IeC {\cyrb }\IeC {\cyro }\IeC {\cyrt }\IeC {\cyra } 4}{12}{subsection.1.4}
\contentsline {subsubsection}{\numberline {1.4.1}\IeC {\CYRT }\IeC {\cyrr }\IeC {\cyre }\IeC {\cyrb }\IeC {\cyro }\IeC {\cyrv }\IeC {\cyra }\IeC {\cyrn }\IeC {\cyri }\IeC {\cyrya } \IeC {\cyrk } \IeC {\cyrz }\IeC {\cyrn }\IeC {\cyra }\IeC {\cyrn }\IeC {\cyri }\IeC {\cyrya }\IeC {\cyrm } \IeC {\cyrd }\IeC {\cyrl }\IeC {\cyrya } \IeC {\cyrv }\IeC {\cyrery }\IeC {\cyrp }\IeC {\cyro }\IeC {\cyrl }\IeC {\cyrn }\IeC {\cyre }\IeC {\cyrn }\IeC {\cyri }\IeC {\cyrya }}{12}{subsubsection.1.4.1}
\contentsline {subsubsection}{\numberline {1.4.2}\IeC {\CYRM }\IeC {\cyro }\IeC {\cyrd }\IeC {\cyre }\IeC {\cyrl }\IeC {\cyrsftsn } \IeC {\CYRL }\IeC {\cyro }\IeC {\cyrt }\IeC {\cyrk }\IeC {\cyri }--\IeC {\CYRV }\IeC {\cyro }\IeC {\cyrl }\IeC {\cyrsftsn }\IeC {\cyrt }\IeC {\cyre }\IeC {\cyrr }\IeC {\cyrr }\IeC {\cyrery }}{12}{subsubsection.1.4.2}
\contentsline {section}{\numberline {2}\IeC {\CYRV }\IeC {\cyro }\IeC {\cyrp }\IeC {\cyrr }\IeC {\cyro }\IeC {\cyrs }\IeC {\cyrery } \IeC {\cyri } \IeC {\cyro }\IeC {\cyrt }\IeC {\cyrv }\IeC {\cyre }\IeC {\cyrt }\IeC {\cyrery }}{14}{section.2}
